{
  "orgName": "ak company",
  "edition": "Developer",
  "description": "Parimatch Test Task",
  "features": ["PersonAccounts"],
  "settings": {
    "lightningExperienceSettings": {
        "enableS1DesktopEnabled": true
    },
    "securitySettings": {
        "passwordPolicies": {
            "enableSetPasswordInApi": true
        }
    },
    "mobileSettings": {
        "enableS1EncryptedStoragePref2": false
    }
  }
}
